<svg xmlns="http://www.w3.org/2000/svg" width="49.584" height="40.667" viewBox="0 0 49.584 40.667">
    <path id="prefix__Path_2" d="M1175.12 421.645a100.093 100.093 0 0 0-41.564 0 5.116 5.116 0 0 0-4.01 4.988v26.318a5.116 5.116 0 0 0 4.01 4.988 99.635 99.635 0 0 0 41.565 0 5.116 5.116 0 0 0 4.009-4.988v-26.319a5.116 5.116 0 0 0-4.01-4.987z" data-name="Path 2" transform="translate(-1129.545 -419.463)" style="fill:#eeb720"/>
</svg>
